%YAML 1.1
%TAG !u! tag:unity3d.com,2011:
--- !u!114 &4316590961896852388
MonoBehaviour:
  m_ObjectHideFlags: 0
  m_CorrespondingSourceObject: {fileID: 0}
  m_PrefabInstance: {fileID: 0}
  m_PrefabAsset: {fileID: 0}
  m_GameObject: {fileID: 3186227699318885617}
  m_Enabled: 1
  m_EditorHideFlags: 0
  m_Script: {fileID: 11500000, guid: d8eb9cebddfd4e049a93ff0bdc2fbb7e, type: 3}
  m_Name: 
  m_EditorClassIdentifier: 
--- !u!1001 &2855180635888166420
PrefabInstance:
  m_ObjectHideFlags: 0
  serializedVersion: 2
  m_Modification:
    m_TransformParent: {fileID: 0}
    m_Modifications:
    - target: {fileID: 840029766564817637, guid: c47f51ce4c4b871459e834c2491cbc38,
        type: 3}
      propertyPath: m_Name
      value: DisparoGatuno2
      objectReference: {fileID: 0}
    - target: {fileID: 840029766564817637, guid: c47f51ce4c4b871459e834c2491cbc38,
        type: 3}
      propertyPath: m_TagString
      value: disparo2
      objectReference: {fileID: 0}
    - target: {fileID: 840029766564817632, guid: c47f51ce4c4b871459e834c2491cbc38,
        type: 3}
      propertyPath: m_LocalPosition.x
      value: -1.1
      objectReference: {fileID: 0}
    - target: {fileID: 840029766564817632, guid: c47f51ce4c4b871459e834c2491cbc38,
        type: 3}
      propertyPath: m_LocalPosition.y
      value: 0.14
      objectReference: {fileID: 0}
    - target: {fileID: 840029766564817632, guid: c47f51ce4c4b871459e834c2491cbc38,
        type: 3}
      propertyPath: m_LocalPosition.z
      value: -0.0546875
      objectReference: {fileID: 0}
    - target: {fileID: 840029766564817632, guid: c47f51ce4c4b871459e834c2491cbc38,
        type: 3}
      propertyPath: m_LocalRotation.x
      value: 0
      objectReference: {fileID: 0}
    - target: {fileID: 840029766564817632, guid: c47f51ce4c4b871459e834c2491cbc38,
        type: 3}
      propertyPath: m_LocalRotation.y
      value: 0
      objectReference: {fileID: 0}
    - target: {fileID: 840029766564817632, guid: c47f51ce4c4b871459e834c2491cbc38,
        type: 3}
      propertyPath: m_LocalRotation.z
      value: 0
      objectReference: {fileID: 0}
    - target: {fileID: 840029766564817632, guid: c47f51ce4c4b871459e834c2491cbc38,
        type: 3}
      propertyPath: m_LocalRotation.w
      value: 1
      objectReference: {fileID: 0}
    - target: {fileID: 840029766564817632, guid: c47f51ce4c4b871459e834c2491cbc38,
        type: 3}
      propertyPath: m_RootOrder
      value: 0
      objectReference: {fileID: 0}
    - target: {fileID: 840029766564817632, guid: c47f51ce4c4b871459e834c2491cbc38,
        type: 3}
      propertyPath: m_LocalEulerAnglesHint.x
      value: 0
      objectReference: {fileID: 0}
    - target: {fileID: 840029766564817632, guid: c47f51ce4c4b871459e834c2491cbc38,
        type: 3}
      propertyPath: m_LocalEulerAnglesHint.y
      value: 0
      objectReference: {fileID: 0}
    - target: {fileID: 840029766564817632, guid: c47f51ce4c4b871459e834c2491cbc38,
        type: 3}
      propertyPath: m_LocalEulerAnglesHint.z
      value: 0
      objectReference: {fileID: 0}
    - target: {fileID: 840029766564817632, guid: c47f51ce4c4b871459e834c2491cbc38,
        type: 3}
      propertyPath: m_LocalScale.x
      value: 0.42779136
      objectReference: {fileID: 0}
    - target: {fileID: 840029766564817638, guid: c47f51ce4c4b871459e834c2491cbc38,
        type: 3}
      propertyPath: m_FlipX
      value: 0
      objectReference: {fileID: 0}
    m_RemovedComponents:
    - {fileID: 4757625131104021732, guid: c47f51ce4c4b871459e834c2491cbc38, type: 3}
  m_SourcePrefab: {fileID: 100100000, guid: c47f51ce4c4b871459e834c2491cbc38, type: 3}
--- !u!1 &3186227699318885617 stripped
GameObject:
  m_CorrespondingSourceObject: {fileID: 840029766564817637, guid: c47f51ce4c4b871459e834c2491cbc38,
    type: 3}
  m_PrefabInstance: {fileID: 2855180635888166420}
  m_PrefabAsset: {fileID: 0}
